<?xml version="1.0" encoding="utf-8"?>
<!-- Generator: Adobe Illustrator 24.1.1, SVG Export Plug-In . SVG Version: 6.00 Build 0)  -->
<svg version="1.1" id="Capa_1" xmlns="http://www.w3.org/2000/svg" xmlns:xlink="http://www.w3.org/1999/xlink" x="0px" y="0px"
  viewBox="0 0 512 512" style="enable-background:new 0 0 512 512;" xml:space="preserve">
<style type="text/css">
  .st0{fill:#FF3435;}
</style>
<path class="st0" d="M409.8,278.5L256,432.3L102.2,278.5l28.3-28.3L236,355.7V0h40v355.7l105.5-105.5L409.8,278.5z M512,472H0v40
  h512V472z"/>
</svg>
